{
  "name": "On Business",
  "version": "0.0.1",
  "description": "apiDoc",
  "title": "On Business API",
  "url": "http://118.69.65.167",
  "sampleUrl": false,
  "defaultVersion": "0.0.0",
  "apidoc": "0.3.0",
  "generator": {
    "name": "apidoc",
    "time": "2017-03-13T03:21:17.440Z",
    "url": "http://apidocjs.com",
    "version": "0.17.5"
  }
}
